Ch. 10 Relational Data pg 171-193
…
It seems that mainly AA and MQ have tailnums that are not in the planes table.

2.

planes_100_plus_flights <- flights %>%
  group_by(tailnum) %>%
  count() %>%
  filter(n > 100)

semi_join(flights, planes_100_plus_flights, by = "tailnum")

## # A tibble: 229,202 x 20
##     year month   day dep_time sched_dep_time dep_delay arr_time
##    <int> <int> <int>    <int>          <int>     <dbl>    <int>
##  1  2013     1     1     1604           1510        54     1817
##  2  2013     1     1     2100           2100         0     2307
##  3  2013     1     2      827            835        -8     1059
##  4  2013     1     2     2014           2020        -6     2256
##  5  2013     1     4     1621           1625        -4     1853
##  6  2013     1     5      834            835        -1     1050
##  7  2013     1     6      832            835        -3     1101
##  8  2013     1     6     2051           2100        -9     2241
##  9  2013     1     7      826            835        -9     1057
## 10  2013     1     7     1444           1445        -1     1659
## # ... with 229,192 more rows, and 13 more variables: sched_arr_time <int>,
## #   arr_delay <dbl>, carrier <chr>, flight <int>, tailnum <chr>,
## #   origin <chr>, dest <chr>, air_time <dbl>, distance <dbl>, hour <dbl>,
## #   minute <dbl>, time_hour <dttm>, Seq <int>

3.

fueleconomy::vehicles %>%
  semi_join(fueleconomy::common)

## Joining, by = c("make", "model")

## # A tibble: 14,531 x 12
##       id  make   model  year           class           trans
##    <int> <chr>   <chr> <int>           <chr>           <chr>
##  1  1833 Acura Integra  1986 Subcompact Cars Automatic 4-spd
##  2  1834 Acura Integra  1986 Subcompact Cars    Manual 5-spd
##  3  3037 Acura Integra  1987 Subcompact Cars Automatic 4-spd
##  4  3038 Acura Integra  1987 Subcompact Cars    Manual 5-spd
##  5  4183 Acura Integra  1988 Subcompact Cars Automatic 4-spd
##  6  4184 Acura Integra  1988 Subcompact Cars    Manual 5-spd
##  7  5303 Acura Integra  1989 Subcompact Cars Automatic 4-spd
##  8  5304 Acura Integra  1989 Subcompact Cars    Manual 5-spd
##  9  6442 Acura Integra  1990 Subcompact Cars Automatic 4-spd
## 10  6443 Acura Integra  1990 Subcompact Cars    Manual 5-spd
## # ... with 14,521 more rows, and 6 more variables: drive <chr>, cyl <int>,
## #   displ <dbl>, fuel <chr>, hwy <int>, cty <int>

4.

5.

anti_join(flights, airports, by = c("dest" = "faa"))

## # A tibble: 7,602 x 20
##     year month   day dep_time sched_dep_time dep_delay arr_time
##    <int> <int> <int>    <int>          <int>     <dbl>    <int>
##  1  2013     1     1      615            615         0     1039
##  2  2013     1     1      628            630        -2     1137
##  3  2013     1     1      701            700         1     1123
##  4  2013     1     1      711            715        -4     1151
##  5  2013     1     1      820            820         0     1254
##  6  2013     1     1      820            820         0     1249
##  7  2013     1     1      840            845        -5     1311
##  8  2013     1     1      926            929        -3     1404
##  9  2013     1     1     1202           1159         3     1645
## 10  2013     1     1     1245           1249        -4     1722
## # ... with 7,592 more rows, and 13 more variables: sched_arr_time <int>,
## #   arr_delay <dbl>, carrier <chr>, flight <int>, tailnum <chr>,
## #   origin <chr>, dest <chr>, air_time <dbl>, distance <dbl>, hour <dbl>,
## #   minute <dbl>, time_hour <dttm>, Seq <int>

anti_join(airports, flights, by = c("faa" = "dest"))

## # A tibble: 1,357 x 8
##      faa                                                name      lat
##    <chr>                                               <chr>    <dbl>
##  1   OME                                                Nome 64.51220
##  2   TZR                                        Bolton Field 39.90111
##  3   HSV Huntsville International Airport-Carl T Jones Field 34.63719
##  4   RID                          Richmond Municipal Airport 39.75610
##  5   SCM                                 Scammon Bay Airport 61.84528
##  6   PMP                               Pompano Beach Airpark 26.24714
##  7   AIZ                         Lee C Fine Memorial Airport 38.09604
##  8   GYY                  Gary Chicago International Airport 41.61630
##  9   CID                                        Cedar Rapids 41.88469
## 10   MOU                            Mountain Village Airport 62.09540
## # ... with 1,347 more rows, and 5 more variables: lon <dbl>, alt <int>,
## #   tz <dbl>, dst <chr>, tzone <chr>
…
